…
trash_df = full_join(mr_trash_df, prof_trash_df)%>%
  select(trash_wheel, everything())
```

    ## Joining, by = c("dumpster", "month", "year", "date", "weight_tons",
    ## "volume_cubic_yards", "plastic_bottles", "polystyrene", "cigarette_butts",
    ## "glass_bottles", "grocery_bags", "chip_bags", "homes_powered", "trash_wheel")

``` r
trash_df
```

    ## # A tibble: 641 × 15
    ##    trash_wheel dumpster month  year date                weight…¹ volum…² plast…³
    ##    <chr>          <dbl> <chr> <dbl> <dttm>                 <dbl>   <dbl>   <dbl>
    ##  1 Mr.                1 May    2014 2014-05-16 00:00:00     4.31      18    1450
    ##  2 Mr.                2 May    2014 2014-05-16 00:00:00     2.74      13    1120
    ##  3 Mr.                3 May    2014 2014-05-16 00:00:00     3.45      15    2450
    ##  4 Mr.                4 May    2014 2014-05-17 00:00:00     3.1       15    2380
    ##  5 Mr.                5 May    2014 2014-05-17 00:00:00     4.06      18     980
    ##  6 Mr.                6 May    2014 2014-05-20 00:00:00     2.71      13    1430
    ##  7 Mr.                7 May    2014 2014-05-21 00:00:00     1.91       8     910
    ##  8 Mr.                8 May    2014 2014-05-28 00:00:00     3.7       16    3580
    ##  9 Mr.                9 June   2014 2014-06-05 00:00:00     2.52      14    2400
    ## 10 Mr.               10 June   2014 2014-06-11 00:00:00     3.76      18    1340
    ## # … with 631 more rows, 7 more variables: polystyrene <dbl>,
    ## #   cigarette_butts <dbl>, glass_bottles <dbl>, grocery_bags <dbl>,
    ## #   chip_bags <dbl>, sports_balls <int>, homes_powered <dbl>, and abbreviated
    ## #   variable names ¹​weight_tons, ²​volume_cubic_yards, ³​plastic_bottles
…
joined_df =
  full_join(pol_df, snp_df) %>%
  full_join(unemp_df) %>%
  mutate(date = lubridate::make_date(year,match(month,month.abb))) %>%
  select(year,month,date,everything())

joined_df
```

    ## # A tibble: 823 × 12
    ##     year month date       gov_gop sen_gop rep_gop gov_dem sen_dem rep_dem
    ##    <dbl> <chr> <date>       <dbl>   <dbl>   <dbl>   <dbl>   <dbl>   <dbl>
    ##  1  1947 Jan   1947-01-01      23      51     253      23      45     198
    ##  2  1947 Feb   1947-02-01      23      51     253      23      45     198
    ##  3  1947 Mar   1947-03-01      23      51     253      23      45     198
    ##  4  1947 Apr   1947-04-01      23      51     253      23      45     198
    ##  5  1947 May   1947-05-01      23      51     253      23      45     198
    ##  6  1947 Jun   1947-06-01      23      51     253      23      45     198
    ##  7  1947 Jul   1947-07-01      23      51     253      23      45     198
    ##  8  1947 Aug   1947-08-01      23      51     253      23      45     198
    ##  9  1947 Sep   1947-09-01      23      51     253      23      45     198
    ## 10  1947 Oct   1947-10-01      23      51     253      23      45     198
    ## # … with 813 more rows, and 3 more variables: president <chr>, close <dbl>,
    ## #   unemployment <dbl>
…
